<?xml version="1.0" encoding="UTF-8" standalone="no"?>
<!DOCTYPE svg PUBLIC "-//W3C//DTD SVG 1.1//EN" "http://www.w3.org/Graphics/SVG/1.1/DTD/svg11.dtd">
<svg width="100%" height="100%" viewBox="0 0 128 128" version="1.1" xmlns="http://www.w3.org/2000/svg" xmlns:xlink="http://www.w3.org/1999/xlink" xml:space="preserve" xmlns:serif="http://www.serif.com/" style="fill-rule:evenodd;clip-rule:evenodd;stroke-linejoin:round;stroke-miterlimit:2;">
    <g transform="matrix(1.09497,0,0,1.07992,-8.03052,-1.24278)">
        <path d="M106.711,45.063C106.605,45.101 106.5,45.139 106.394,45.176C101.495,46.926 96.612,48.266 91.826,50.414C81.864,54.887 72.348,61.212 63.509,67.601C54.463,74.14 45.078,80.958 37.156,88.88C45.078,80.958 54.463,74.14 63.509,67.601C72.348,61.212 81.864,54.887 91.826,50.414C96.612,48.266 101.495,46.926 106.394,45.176C106.5,45.139 106.605,45.101 106.711,45.063C107.994,49.004 108.685,53.193 108.685,57.535C108.685,80.706 88.993,99.519 64.737,99.519C40.481,99.519 20.788,80.706 20.788,57.535C20.788,34.363 40.481,15.55 64.737,15.55C84.447,15.55 101.145,27.973 106.711,45.063ZM67.601,74.148C68.278,77.532 70.169,80.595 71.693,83.642C72.183,84.621 72.582,86.331 73.33,87.079C72.582,86.331 72.183,84.621 71.693,83.642C70.169,80.595 68.278,77.532 67.601,74.148Z" style="fill:rgb(206,30,30);"/>
    </g>
    <g transform="matrix(1.06644,0,0,1.12132,-7.50843,-8.52763)">
        <g id="Shadw">
            <ellipse cx="70.637" cy="65.971" rx="38.433" ry="35.617" style="fill:rgb(139,23,23);"/>
        </g>
    </g>
    <g transform="matrix(1.02404,0,0,1.08838,0.57304,-4.74779)">
        <path d="M104.563,75.408C117.192,92.621 122.556,107.596 116.918,113.772C108.128,123.401 76.062,108.46 45.356,80.429C14.649,52.398 -3.145,21.823 5.644,12.195C11.224,6.082 26.184,9.871 44.221,20.624C44.212,20.624 44.901,19.413 44.892,19.413C44.901,19.413 44.212,20.624 44.221,20.624C44.521,20.803 44.822,20.984 45.123,21.166C43.874,21.579 41.671,22.311 40.218,22.938C38.616,23.629 35.233,25.372 33.388,26.611C27.442,24.724 25.069,25.328 22.779,27.836C16.696,34.499 29.01,55.658 50.26,75.056C71.51,94.455 93.701,104.794 99.784,98.131C102.306,95.368 101.901,91.444 98.771,84.855C99.292,84.093 100.238,82.942 100.724,82.31C101.327,81.526 101.837,80.557 102.487,79.471C103.229,78.234 103.94,76.964 104.563,75.408Z" style="fill:rgb(206,95,30);"/>
    </g>
</svg>
