[gd_scene load_steps=2 format=3 uid="uid://dvsrvrj1y0j2r"]

[ext_resource type="Script" path="res://planets/decal_builder.gd" id="1_7qfuf"]

[node name="DecalBuilder" type="Node3D"]
script = ExtResource("1_7qfuf")
