# Blender 3.4.1 MTL File: 'None'
# www.blender.org

newmtl Matériau
Ns 6.835517
Ka 1.000000 1.000000 1.000000
Kd 0.800000 0.800000 0.800000
Ks 0.492126 0.492126 0.492126
Ke 0.000000 0.000000 0.000000
Ni 1.450000
d 1.000000
illum 2
